<?xml version="1.0" encoding="UTF-8"?>
<!DOCTYPE svg PUBLIC "-//W3C//DTD SVG 1.1//EN" "http://www.w3.org/Graphics/SVG/1.1/DTD/svg11.dtd">
<!-- Creator: CorelDRAW 2019 (64 Bit) -->
<svg xmlns="http://www.w3.org/2000/svg" xml:space="preserve" width="2.4122mm" height="2.9355mm" version="1.1" style="shape-rendering:geometricPrecision; text-rendering:geometricPrecision; image-rendering:optimizeQuality; fill-rule:evenodd; clip-rule:evenodd"
viewBox="0 0 19.23 23.41"
 xmlns:xlink="http://www.w3.org/1999/xlink"
 xmlns:xodm="http://www.corel.com/coreldraw/odm/2003">
 <defs>
  <style type="text/css">
   <![CDATA[
    .fil0 {fill:black;fill-rule:nonzero}
   ]]>
  </style>
 </defs>
 <g id="Camada_x0020_1">
  <metadata id="CorelCorpID_0Corel-Layer"/>
  <path class="fil0" d="M5.86 4c-1.55,1.03 -2.53,2.6 -2.86,4.3 -0.34,1.7 -0.03,3.53 1.01,5.07 1.04,1.55 2.6,2.53 4.3,2.87 1.7,0.34 3.53,0.03 5.07,-1.01 1.55,-1.04 2.53,-2.6 2.86,-4.3 0.34,-1.7 0.03,-3.53 -1.01,-5.07 -1.04,-1.55 -2.6,-2.53 -4.3,-2.87 -1.7,-0.34 -3.53,-0.03 -5.07,1.01zm10.13 12.81l2.92 4.37c0.44,0.66 0.26,1.54 -0.39,1.98 -0.66,0.44 -1.54,0.26 -1.98,-0.39l-2.95 -4.4c-1.87,0.85 -3.92,1.06 -5.84,0.68 -2.41,-0.48 -4.65,-1.88 -6.12,-4.09 -1.48,-2.21 -1.92,-4.8 -1.45,-7.21 0.48,-2.41 1.88,-4.65 4.08,-6.12 2.21,-1.48 4.8,-1.92 7.21,-1.45 2.41,0.48 4.65,1.88 6.12,4.09 1.48,2.21 1.92,4.8 1.45,7.21 -0.4,2.02 -1.44,3.91 -3.06,5.33z"/>
 </g>
</svg>
